src/chuck_test_code/transcript
# vsim -c top 
# Start time: 11:57:39 on Jun 08,2021
# ** Note: (vsim-3813) Design is being optimized due to module recompilation...
# ** Warning: design/normalize.sv(43): (vopt-2241) Connection width does not match width of port 'out'. The port definition is at: design/find_first_1.sv(1).
# ** Warning: design/normalize.sv(43): (vopt-2241) Connection width does not match width of port 'out'. The port definition is at: design/find_first_1.sv(1).
# ** Warning: verification/add_sub_top_tb.sv(5): (vopt-2605) empty port name in port list.
# //  Questa Sim-64
# //  Version 2019.2_1 linux_x86_64 May 13 2019
# //
# //  Copyright 1991-2019 Mentor Graphics Corporation
# //  All Rights Reserved.
# //
# //  QuestaSim and its associated documentation contain trade
# //  secrets and commercial or financial information that are the property of
# //  Mentor Graphics Corporation and are privileged, confidential,
# //  and exempt from disclosure under the Freedom of Information Act,
# //  5 U.S.C. Section 552. Furthermore, this information
# //  is prohibited from disclosure under the Trade Secrets Act,
# //  18 U.S.C. Section 1905.
# //
# Loading sv_std.std
# Loading work.error_check_sv_unit(fast)
# Loading work.rounding_sv_unit(fast)
# Loading work.normalize_sv_unit(fast)
# Loading work.align_significands_sv_unit(fast)
# Loading work.complement_sv_unit(fast)
# Loading work.concat_1_sv_unit(fast)
# Loading work.swap_sv_unit(fast)
# Loading work.compare_exponents_sv_unit(fast)
# Loading work.addpkg(fast)
# Loading work.denorm_zero_sv_unit(fast)
# Loading work.fp_pkg(fast)
# Loading work.add_sub_top_sv_unit(fast)
# Loading work.add_sub_top_tb_sv_unit(fast)
# Loading work.top(fast)
# 150::VALUE/TYPE MISMATCH: OP1=1.315852e+30 REG. OP2=2.935744e+25 REG. OP_CODE=ADD. EXP=1.315881e+30. RES=0.000000e+00. EXP_TYPE=REG. RES_TYPE=ZERO.
# 300::VALUE/TYPE MISMATCH: OP1=6.228961e+16 REG. OP2=-1.049446e-11 REG. OP_CODE=ADD. EXP=6.228961e+16. RES=0.000000e+00. EXP_TYPE=REG. RES_TYPE=ZERO.
# 450::VALUE/TYPE MISMATCH: OP1=-2.966542e+23 REG. OP2=2.078594e-03 REG. OP_CODE=ADD. EXP=-2.966542e+23. RES=-0.000000e+00. EXP_TYPE=REG. RES_TYPE=ZERO.
# 600::VALUE/TYPE MISMATCH: OP1=-3.563847e-02 REG. OP2=-7.367950e+31 REG. OP_CODE=ADD. EXP=-7.367950e+31. RES=0.000000e+00. EXP_TYPE=REG. RES_TYPE=ZERO.
# 750::VALUE/TYPE MISMATCH: OP1=1.332382e+04 REG. OP2=1.338860e-21 REG. OP_CODE=SUB. EXP=1.332382e+04. RES=0.000000e+00. EXP_TYPE=REG. RES_TYPE=ZERO.
# 900::VALUE/TYPE MISMATCH: OP1=2.412577e+03 REG. OP2=-2.212262e+00 REG. OP_CODE=SUB. EXP=2.414789e+03. RES=0.000000e+00. EXP_TYPE=REG. RES_TYPE=ZERO.
# 1050::VALUE/TYPE MISMATCH: OP1=-5.193342e+18 REG. OP2=4.568399e+36 REG. OP_CODE=SUB. EXP=-4.568399e+36. RES=0.000000e+00. EXP_TYPE=REG. RES_TYPE=ZERO.
# 1200::VALUE/TYPE MISMATCH: OP1=-2.929454e-27 REG. OP2=-3.202449e+27 REG. OP_CODE=SUB. EXP=3.202449e+27. RES=0.000000e+00. EXP_TYPE=REG. RES_TYPE=ZERO.
# 2700::VALUE/TYPE MISMATCH: OP1=1.407071e+07 REG. OP2=-inf INF. OP_CODE=ADD. EXP=-inf. RES=inf. EXP_TYPE=INF. RES_TYPE=INF.
# 3000::VALUE/TYPE MISMATCH: OP1=-3.468779e-19 REG. OP2=-inf INF. OP_CODE=ADD. EXP=-inf. RES=inf. EXP_TYPE=INF. RES_TYPE=INF.
# 3150::VALUE/TYPE MISMATCH: OP1=1.879236e+19 REG. OP2=inf INF. OP_CODE=SUB. EXP=-inf. RES=inf. EXP_TYPE=INF. RES_TYPE=INF.
# 3450::VALUE/TYPE MISMATCH: OP1=-5.031802e+20 REG. OP2=inf INF. OP_CODE=SUB. EXP=-inf. RES=inf. EXP_TYPE=INF. RES_TYPE=INF.
# 4950::VALUE/TYPE MISMATCH: OP1=6.714481e-30 REG. OP2=9.685691e-39 DENORM. OP_CODE=ADD. EXP=6.714481e-30. RES=0.000000e+00. EXP_TYPE=REG. RES_TYPE=ZERO.
# 5100::VALUE/TYPE MISMATCH: OP1=1.262577e-31 REG. OP2=-6.896944e-39 DENORM. OP_CODE=ADD. EXP=1.262577e-31. RES=0.000000e+00. EXP_TYPE=REG. RES_TYPE=ZERO.
# 5250::VALUE/TYPE MISMATCH: OP1=-1.399463e+13 REG. OP2=8.653029e-39 DENORM. OP_CODE=ADD. EXP=-1.399463e+13. RES=-0.000000e+00. EXP_TYPE=REG. RES_TYPE=ZERO.
# 5400::VALUE/TYPE MISMATCH: OP1=-8.853715e+23 REG. OP2=-1.173976e-38 DENORM. OP_CODE=ADD. EXP=-8.853715e+23. RES=-0.000000e+00. EXP_TYPE=REG. RES_TYPE=ZERO.
# 5550::VALUE/TYPE MISMATCH: OP1=6.748175e+25 REG. OP2=4.068467e-39 DENORM. OP_CODE=SUB. EXP=6.748175e+25. RES=0.000000e+00. EXP_TYPE=REG. RES_TYPE=ZERO.
# 5700::VALUE/TYPE MISMATCH: OP1=1.886217e-10 REG. OP2=-1.129093e-38 DENORM. OP_CODE=SUB. EXP=1.886217e-10. RES=0.000000e+00. EXP_TYPE=REG. RES_TYPE=ZERO.
# 5850::VALUE/TYPE MISMATCH: OP1=-1.130438e+11 REG. OP2=1.067664e-38 DENORM. OP_CODE=SUB. EXP=-1.130438e+11. RES=-0.000000e+00. EXP_TYPE=REG. RES_TYPE=ZERO.
# 6000::VALUE/TYPE MISMATCH: OP1=-5.347890e+34 REG. OP2=-1.151362e-38 DENORM. OP_CODE=SUB. EXP=-5.347890e+34. RES=-0.000000e+00. EXP_TYPE=REG. RES_TYPE=ZERO.
# 6150::VALUE/TYPE MISMATCH: OP1=2.624516e-19 REG. OP2=3.402823e+38 MAX. OP_CODE=ADD. EXP=3.402823e+38. RES=0.000000e+00. EXP_TYPE=MAX. RES_TYPE=ZERO.
# 6300::VALUE/TYPE MISMATCH: OP1=1.147725e+26 REG. OP2=-3.402823e+38 MAX. OP_CODE=ADD. EXP=-3.402823e+38. RES=0.000000e+00. EXP_TYPE=MAX. RES_TYPE=ZERO.
# 6450::VALUE/TYPE MISMATCH: OP1=-2.425532e+06 REG. OP2=3.402823e+38 MAX. OP_CODE=ADD. EXP=3.402823e+38. RES=0.000000e+00. EXP_TYPE=MAX. RES_TYPE=ZERO.
# 6600::VALUE/TYPE MISMATCH: OP1=-2.037861e-29 REG. OP2=-3.402823e+38 MAX. OP_CODE=ADD. EXP=-3.402823e+38. RES=0.000000e+00. EXP_TYPE=MAX. RES_TYPE=ZERO.
# 6750::VALUE/TYPE MISMATCH: OP1=2.820903e+20 REG. OP2=3.402823e+38 MAX. OP_CODE=SUB. EXP=-3.402823e+38. RES=0.000000e+00. EXP_TYPE=MAX. RES_TYPE=ZERO.
# 6900::VALUE/TYPE MISMATCH: OP1=5.906273e+15 REG. OP2=-3.402823e+38 MAX. OP_CODE=SUB. EXP=3.402823e+38. RES=0.000000e+00. EXP_TYPE=MAX. RES_TYPE=ZERO.
# 7050::VALUE/TYPE MISMATCH: OP1=-1.453409e-05 REG. OP2=3.402823e+38 MAX. OP_CODE=SUB. EXP=-3.402823e+38. RES=0.000000e+00. EXP_TYPE=MAX. RES_TYPE=ZERO.
# 7200::VALUE/TYPE MISMATCH: OP1=-2.596305e-14 REG. OP2=-3.402823e+38 MAX. OP_CODE=SUB. EXP=3.402823e+38. RES=0.000000e+00. EXP_TYPE=MAX. RES_TYPE=ZERO.
# 7350::VALUE/TYPE MISMATCH: OP1=4.366969e+19 REG. OP2=1.175494e-38 NORMMIN. OP_CODE=ADD. EXP=4.366969e+19. RES=0.000000e+00. EXP_TYPE=REG. RES_TYPE=ZERO.
# 7500::VALUE/TYPE MISMATCH: OP1=7.281742e+33 REG. OP2=-1.175494e-38 NORMMIN. OP_CODE=ADD. EXP=7.281742e+33. RES=0.000000e+00. EXP_TYPE=REG. RES_TYPE=ZERO.
# 7650::VALUE/TYPE MISMATCH: OP1=-1.879523e+34 REG. OP2=1.175494e-38 NORMMIN. OP_CODE=ADD. EXP=-1.879523e+34. RES=-0.000000e+00. EXP_TYPE=REG. RES_TYPE=ZERO.
# 7800::VALUE/TYPE MISMATCH: OP1=-7.453227e+24 REG. OP2=-1.175494e-38 NORMMIN. OP_CODE=ADD. EXP=-7.453227e+24. RES=-0.000000e+00. EXP_TYPE=REG. RES_TYPE=ZERO.
# 7950::VALUE/TYPE MISMATCH: OP1=7.915622e+03 REG. OP2=1.175494e-38 NORMMIN. OP_CODE=SUB. EXP=7.915622e+03. RES=0.000000e+00. EXP_TYPE=REG. RES_TYPE=ZERO.
# 8100::VALUE/TYPE MISMATCH: OP1=1.686528e+22 REG. OP2=-1.175494e-38 NORMMIN. OP_CODE=SUB. EXP=1.686528e+22. RES=0.000000e+00. EXP_TYPE=REG. RES_TYPE=ZERO.
# 8250::VALUE/TYPE MISMATCH: OP1=-5.266533e+13 REG. OP2=1.175494e-38 NORMMIN. OP_CODE=SUB. EXP=-5.266533e+13. RES=-0.000000e+00. EXP_TYPE=REG. RES_TYPE=ZERO.
# 8400::VALUE/TYPE MISMATCH: OP1=-3.093887e-02 REG. OP2=-1.175494e-38 NORMMIN. OP_CODE=SUB. EXP=-3.093887e-02. RES=-0.000000e+00. EXP_TYPE=REG. RES_TYPE=ZERO.
# 8550::VALUE/TYPE MISMATCH: OP1=1.883864e-31 REG. OP2=1.401298e-45 DENORMMIN. OP_CODE=ADD. EXP=1.883864e-31. RES=0.000000e+00. EXP_TYPE=REG. RES_TYPE=ZERO.
# 8700::VALUE/TYPE MISMATCH: OP1=1.894904e-15 REG. OP2=-1.401298e-45 DENORMMIN. OP_CODE=ADD. EXP=1.894904e-15. RES=0.000000e+00. EXP_TYPE=REG. RES_TYPE=ZERO.
# 8850::VALUE/TYPE MISMATCH: OP1=-1.000023e-15 REG. OP2=1.401298e-45 DENORMMIN. OP_CODE=ADD. EXP=-1.000023e-15. RES=-0.000000e+00. EXP_TYPE=REG. RES_TYPE=ZERO.
# 9000::VALUE/TYPE MISMATCH: OP1=-8.276056e+00 REG. OP2=-1.401298e-45 DENORMMIN. OP_CODE=ADD. EXP=-8.276056e+00. RES=-0.000000e+00. EXP_TYPE=REG. RES_TYPE=ZERO.
# 9150::VALUE/TYPE MISMATCH: OP1=2.380493e-15 REG. OP2=1.401298e-45 DENORMMIN. OP_CODE=SUB. EXP=2.380493e-15. RES=0.000000e+00. EXP_TYPE=REG. RES_TYPE=ZERO.
# 9300::VALUE/TYPE MISMATCH: OP1=3.802406e+10 REG. OP2=-1.401298e-45 DENORMMIN. OP_CODE=SUB. EXP=3.802406e+10. RES=0.000000e+00. EXP_TYPE=REG. RES_TYPE=ZERO.
# 9450::VALUE/TYPE MISMATCH: OP1=-6.381160e-29 REG. OP2=1.401298e-45 DENORMMIN. OP_CODE=SUB. EXP=-6.381160e-29. RES=-0.000000e+00. EXP_TYPE=REG. RES_TYPE=ZERO.
# 9600::VALUE/TYPE MISMATCH: OP1=-4.759832e-38 REG. OP2=-1.401298e-45 DENORMMIN. OP_CODE=SUB. EXP=-4.759832e-38. RES=-0.000000e+00. EXP_TYPE=REG. RES_TYPE=ZERO.
# 21750::VALUE/TYPE MISMATCH: OP1=inf INF. OP2=inf INF. OP_CODE=ADD. EXP=inf. RES=0.000000e+00. EXP_TYPE=INF. RES_TYPE=ZERO.
# 21750::ERROR CODE MISMATCH: EXP_ERR=OVERFLOW. RES_ERR=NONE.
# 21900::VALUE/TYPE MISMATCH: OP1=inf INF. OP2=-inf INF. OP_CODE=ADD. EXP=-nan. RES=0.000000e+00. EXP_TYPE=NAN. RES_TYPE=ZERO.
# 21900::ERROR CODE MISMATCH: EXP_ERR=INVALID. RES_ERR=NONE.
# 22050::VALUE/TYPE MISMATCH: OP1=-inf INF. OP2=inf INF. OP_CODE=ADD. EXP=-nan. RES=-0.000000e+00. EXP_TYPE=NAN. RES_TYPE=ZERO.
# 22050::ERROR CODE MISMATCH: EXP_ERR=INVALID. RES_ERR=NONE.
# 22200::VALUE/TYPE MISMATCH: OP1=-inf INF. OP2=-inf INF. OP_CODE=ADD. EXP=-inf. RES=-0.000000e+00. EXP_TYPE=INF. RES_TYPE=ZERO.
# 22200::ERROR CODE MISMATCH: EXP_ERR=OVERFLOW. RES_ERR=NONE.
# 22350::VALUE/TYPE MISMATCH: OP1=inf INF. OP2=inf INF. OP_CODE=SUB. EXP=-nan. RES=0.000000e+00. EXP_TYPE=NAN. RES_TYPE=ZERO.
# 22350::ERROR CODE MISMATCH: EXP_ERR=INVALID. RES_ERR=NONE.
# 22500::VALUE/TYPE MISMATCH: OP1=inf INF. OP2=-inf INF. OP_CODE=SUB. EXP=inf. RES=0.000000e+00. EXP_TYPE=INF. RES_TYPE=ZERO.
# 22500::ERROR CODE MISMATCH: EXP_ERR=OVERFLOW. RES_ERR=NONE.
# 22650::VALUE/TYPE MISMATCH: OP1=-inf INF. OP2=inf INF. OP_CODE=SUB. EXP=-inf. RES=-0.000000e+00. EXP_TYPE=INF. RES_TYPE=ZERO.
# 22650::ERROR CODE MISMATCH: EXP_ERR=OVERFLOW. RES_ERR=NONE.
# 22800::VALUE/TYPE MISMATCH: OP1=-inf INF. OP2=-inf INF. OP_CODE=SUB. EXP=-nan. RES=-0.000000e+00. EXP_TYPE=NAN. RES_TYPE=ZERO.
# 22800::ERROR CODE MISMATCH: EXP_ERR=INVALID. RES_ERR=NONE.
# 29100::VALUE/TYPE MISMATCH: OP1=0.000000e+00 ZERO. OP2=-6.690216e-06 REG. OP_CODE=ADD. EXP=-6.690216e-06. RES=6.690216e-06. EXP_TYPE=REG. RES_TYPE=REG.
# 29400::VALUE/TYPE MISMATCH: OP1=-0.000000e+00 ZERO. OP2=-3.675345e+37 REG. OP_CODE=ADD. EXP=-3.675345e+37. RES=3.675345e+37. EXP_TYPE=REG. RES_TYPE=REG.
# 29550::VALUE/TYPE MISMATCH: OP1=0.000000e+00 ZERO. OP2=5.351757e+25 REG. OP_CODE=SUB. EXP=-5.351757e+25. RES=5.351757e+25. EXP_TYPE=REG. RES_TYPE=REG.
# 29850::VALUE/TYPE MISMATCH: OP1=-0.000000e+00 ZERO. OP2=4.633877e+28 REG. OP_CODE=SUB. EXP=-4.633877e+28. RES=4.633877e+28. EXP_TYPE=REG. RES_TYPE=REG.
# 31500::VALUE/TYPE MISMATCH: OP1=0.000000e+00 ZERO. OP2=-inf INF. OP_CODE=ADD. EXP=-inf. RES=inf. EXP_TYPE=INF. RES_TYPE=INF.
# 31800::VALUE/TYPE MISMATCH: OP1=-0.000000e+00 ZERO. OP2=-inf INF. OP_CODE=ADD. EXP=-inf. RES=inf. EXP_TYPE=INF. RES_TYPE=INF.
# 31950::VALUE/TYPE MISMATCH: OP1=0.000000e+00 ZERO. OP2=inf INF. OP_CODE=SUB. EXP=-inf. RES=inf. EXP_TYPE=INF. RES_TYPE=INF.
# 32250::VALUE/TYPE MISMATCH: OP1=-0.000000e+00 ZERO. OP2=inf INF. OP_CODE=SUB. EXP=-inf. RES=inf. EXP_TYPE=INF. RES_TYPE=INF.
# 32850::VALUE/TYPE MISMATCH: OP1=-0.000000e+00 ZERO. OP2=0.000000e+00 ZERO. OP_CODE=ADD. EXP=0.000000e+00. RES=-0.000000e+00. EXP_TYPE=ZERO. RES_TYPE=ZERO.
# 33600::VALUE/TYPE MISMATCH: OP1=-0.000000e+00 ZERO. OP2=-0.000000e+00 ZERO. OP_CODE=SUB. EXP=0.000000e+00. RES=-0.000000e+00. EXP_TYPE=ZERO. RES_TYPE=ZERO.
# 33900::VALUE/TYPE MISMATCH: OP1=0.000000e+00 ZERO. OP2=-3.834499e-40 DENORM. OP_CODE=ADD. EXP=-3.834499e-40. RES=3.834499e-40. EXP_TYPE=DENORM. RES_TYPE=DENORM.
# 34200::VALUE/TYPE MISMATCH: OP1=-0.000000e+00 ZERO. OP2=-8.962863e-39 DENORM. OP_CODE=ADD. EXP=-8.962863e-39. RES=8.962863e-39. EXP_TYPE=DENORM. RES_TYPE=DENORM.
# 34350::VALUE/TYPE MISMATCH: OP1=0.000000e+00 ZERO. OP2=1.637490e-39 DENORM. OP_CODE=SUB. EXP=-1.637490e-39. RES=1.637490e-39. EXP_TYPE=DENORM. RES_TYPE=DENORM.
# 34650::VALUE/TYPE MISMATCH: OP1=-0.000000e+00 ZERO. OP2=2.961150e-39 DENORM. OP_CODE=SUB. EXP=-2.961150e-39. RES=2.961150e-39. EXP_TYPE=DENORM. RES_TYPE=DENORM.
# 35100::VALUE/TYPE MISMATCH: OP1=0.000000e+00 ZERO. OP2=-3.402823e+38 MAX. OP_CODE=ADD. EXP=-3.402823e+38. RES=3.402823e+38. EXP_TYPE=MAX. RES_TYPE=MAX.
# 35400::VALUE/TYPE MISMATCH: OP1=-0.000000e+00 ZERO. OP2=-3.402823e+38 MAX. OP_CODE=ADD. EXP=-3.402823e+38. RES=3.402823e+38. EXP_TYPE=MAX. RES_TYPE=MAX.
# 35550::VALUE/TYPE MISMATCH: OP1=0.000000e+00 ZERO. OP2=3.402823e+38 MAX. OP_CODE=SUB. EXP=-3.402823e+38. RES=3.402823e+38. EXP_TYPE=MAX. RES_TYPE=MAX.
# 35850::VALUE/TYPE MISMATCH: OP1=-0.000000e+00 ZERO. OP2=3.402823e+38 MAX. OP_CODE=SUB. EXP=-3.402823e+38. RES=3.402823e+38. EXP_TYPE=MAX. RES_TYPE=MAX.
# 36300::VALUE/TYPE MISMATCH: OP1=0.000000e+00 ZERO. OP2=-1.175494e-38 NORMMIN. OP_CODE=ADD. EXP=-1.175494e-38. RES=1.175494e-38. EXP_TYPE=NORMMIN. RES_TYPE=NORMMIN.
# 36600::VALUE/TYPE MISMATCH: OP1=-0.000000e+00 ZERO. OP2=-1.175494e-38 NORMMIN. OP_CODE=ADD. EXP=-1.175494e-38. RES=1.175494e-38. EXP_TYPE=NORMMIN. RES_TYPE=NORMMIN.
# 36750::VALUE/TYPE MISMATCH: OP1=0.000000e+00 ZERO. OP2=1.175494e-38 NORMMIN. OP_CODE=SUB. EXP=-1.175494e-38. RES=1.175494e-38. EXP_TYPE=NORMMIN. RES_TYPE=NORMMIN.
# 37050::VALUE/TYPE MISMATCH: OP1=-0.000000e+00 ZERO. OP2=1.175494e-38 NORMMIN. OP_CODE=SUB. EXP=-1.175494e-38. RES=1.175494e-38. EXP_TYPE=NORMMIN. RES_TYPE=NORMMIN.
# 37500::VALUE/TYPE MISMATCH: OP1=0.000000e+00 ZERO. OP2=-1.401298e-45 DENORMMIN. OP_CODE=ADD. EXP=-1.401298e-45. RES=1.401298e-45. EXP_TYPE=DENORMMIN. RES_TYPE=DENORMMIN.
# 37800::VALUE/TYPE MISMATCH: OP1=-0.000000e+00 ZERO. OP2=-1.401298e-45 DENORMMIN. OP_CODE=ADD. EXP=-1.401298e-45. RES=1.401298e-45. EXP_TYPE=DENORMMIN. RES_TYPE=DENORMMIN.
# 37950::VALUE/TYPE MISMATCH: OP1=0.000000e+00 ZERO. OP2=1.401298e-45 DENORMMIN. OP_CODE=SUB. EXP=-1.401298e-45. RES=1.401298e-45. EXP_TYPE=DENORMMIN. RES_TYPE=DENORMMIN.
# 38250::VALUE/TYPE MISMATCH: OP1=-0.000000e+00 ZERO. OP2=1.401298e-45 DENORMMIN. OP_CODE=SUB. EXP=-1.401298e-45. RES=1.401298e-45. EXP_TYPE=DENORMMIN. RES_TYPE=DENORMMIN.
# 38550::VALUE/TYPE MISMATCH: OP1=1.083851e-38 DENORM. OP2=1.596036e+27 REG. OP_CODE=ADD. EXP=1.596036e+27. RES=0.000000e+00. EXP_TYPE=REG. RES_TYPE=ZERO.
# 38700::VALUE/TYPE MISMATCH: OP1=6.067296e-39 DENORM. OP2=-3.781068e+30 REG. OP_CODE=ADD. EXP=-3.781068e+30. RES=0.000000e+00. EXP_TYPE=REG. RES_TYPE=ZERO.
# 38850::VALUE/TYPE MISMATCH: OP1=-1.157373e-38 DENORM. OP2=2.349372e-01 REG. OP_CODE=ADD. EXP=2.349372e-01. RES=0.000000e+00. EXP_TYPE=REG. RES_TYPE=ZERO.
# 39000::VALUE/TYPE MISMATCH: OP1=-3.635041e-39 DENORM. OP2=-2.563346e+03 REG. OP_CODE=ADD. EXP=-2.563346e+03. RES=0.000000e+00. EXP_TYPE=REG. RES_TYPE=ZERO.
# 39150::VALUE/TYPE MISMATCH: OP1=5.375682e-39 DENORM. OP2=6.016696e-16 REG. OP_CODE=SUB. EXP=-6.016696e-16. RES=0.000000e+00. EXP_TYPE=REG. RES_TYPE=ZERO.
# 39300::VALUE/TYPE MISMATCH: OP1=1.078835e-38 DENORM. OP2=-1.563001e-07 REG. OP_CODE=SUB. EXP=1.563001e-07. RES=0.000000e+00. EXP_TYPE=REG. RES_TYPE=ZERO.
# 39450::VALUE/TYPE MISMATCH: OP1=-2.575344e-39 DENORM. OP2=9.358920e+05 REG. OP_CODE=SUB. EXP=-9.358920e+05. RES=0.000000e+00. EXP_TYPE=REG. RES_TYPE=ZERO.
# 39600::VALUE/TYPE MISMATCH: OP1=-1.038407e-38 DENORM. OP2=-1.905567e-03 REG. OP_CODE=SUB. EXP=1.905567e-03. RES=0.000000e+00. EXP_TYPE=REG. RES_TYPE=ZERO.
# 41100::VALUE/TYPE MISMATCH: OP1=1.070165e-38 DENORM. OP2=-inf INF. OP_CODE=ADD. EXP=-inf. RES=inf. EXP_TYPE=INF. RES_TYPE=INF.
# 41400::VALUE/TYPE MISMATCH: OP1=-1.076605e-38 DENORM. OP2=-inf INF. OP_CODE=ADD. EXP=-inf. RES=inf. EXP_TYPE=INF. RES_TYPE=INF.
# 41550::VALUE/TYPE MISMATCH: OP1=5.718773e-39 DENORM. OP2=inf INF. OP_CODE=SUB. EXP=-inf. RES=inf. EXP_TYPE=INF. RES_TYPE=INF.
# 41850::VALUE/TYPE MISMATCH: OP1=-4.734525e-40 DENORM. OP2=inf INF. OP_CODE=SUB. EXP=-inf. RES=inf. EXP_TYPE=INF. RES_TYPE=INF.
# 43350::VALUE/TYPE MISMATCH: OP1=1.128490e-38 DENORM. OP2=1.061083e-38 DENORM. OP_CODE=ADD. EXP=2.189573e-38. RES=0.000000e+00. EXP_TYPE=REG. RES_TYPE=ZERO.
# 43500::VALUE/TYPE MISMATCH: OP1=1.172168e-39 DENORM. OP2=-1.893709e-39 DENORM. OP_CODE=ADD. EXP=-7.215412e-40. RES=0.000000e+00. EXP_TYPE=DENORM. RES_TYPE=ZERO.
# 43500::ERROR CODE MISMATCH: EXP_ERR=UNDERFLOW. RES_ERR=NONE.
# 43650::VALUE/TYPE MISMATCH: OP1=-6.875390e-39 DENORM. OP2=7.666105e-39 DENORM. OP_CODE=ADD. EXP=7.907149e-40. RES=0.000000e+00. EXP_TYPE=DENORM. RES_TYPE=ZERO.
# 43650::ERROR CODE MISMATCH: EXP_ERR=UNDERFLOW. RES_ERR=NONE.
# 43800::VALUE/TYPE MISMATCH: OP1=-4.698692e-39 DENORM. OP2=-4.670253e-39 DENORM. OP_CODE=ADD. EXP=-9.368946e-39. RES=-0.000000e+00. EXP_TYPE=DENORM. RES_TYPE=ZERO.
# 43800::ERROR CODE MISMATCH: EXP_ERR=UNDERFLOW. RES_ERR=NONE.
# 43950::VALUE/TYPE MISMATCH: OP1=7.717057e-39 DENORM. OP2=3.759593e-39 DENORM. OP_CODE=SUB. EXP=3.957464e-39. RES=0.000000e+00. EXP_TYPE=DENORM. RES_TYPE=ZERO.
# 43950::ERROR CODE MISMATCH: EXP_ERR=UNDERFLOW. RES_ERR=NONE.
# 44100::VALUE/TYPE MISMATCH: OP1=2.488577e-39 DENORM. OP2=-7.249661e-39 DENORM. OP_CODE=SUB. EXP=9.738238e-39. RES=0.000000e+00. EXP_TYPE=DENORM. RES_TYPE=ZERO.
# 44100::ERROR CODE MISMATCH: EXP_ERR=UNDERFLOW. RES_ERR=NONE.
# 44250::VALUE/TYPE MISMATCH: OP1=-8.554383e-39 DENORM. OP2=7.669354e-39 DENORM. OP_CODE=SUB. EXP=-1.622374e-38. RES=-0.000000e+00. EXP_TYPE=REG. RES_TYPE=ZERO.
# 44400::VALUE/TYPE MISMATCH: OP1=-6.071885e-39 DENORM. OP2=-2.653095e-39 DENORM. OP_CODE=SUB. EXP=-3.418790e-39. RES=-0.000000e+00. EXP_TYPE=DENORM. RES_TYPE=ZERO.
# 44400::ERROR CODE MISMATCH: EXP_ERR=UNDERFLOW. RES_ERR=NONE.
# 44550::VALUE/TYPE MISMATCH: OP1=6.509918e-39 DENORM. OP2=3.402823e+38 MAX. OP_CODE=ADD. EXP=3.402823e+38. RES=0.000000e+00. EXP_TYPE=MAX. RES_TYPE=ZERO.
# 44700::VALUE/TYPE MISMATCH: OP1=8.941571e-39 DENORM. OP2=-3.402823e+38 MAX. OP_CODE=ADD. EXP=-3.402823e+38. RES=0.000000e+00. EXP_TYPE=MAX. RES_TYPE=ZERO.
# 44850::VALUE/TYPE MISMATCH: OP1=-1.156487e-38 DENORM. OP2=3.402823e+38 MAX. OP_CODE=ADD. EXP=3.402823e+38. RES=0.000000e+00. EXP_TYPE=MAX. RES_TYPE=ZERO.
# 45000::VALUE/TYPE MISMATCH: OP1=-1.164107e-38 DENORM. OP2=-3.402823e+38 MAX. OP_CODE=ADD. EXP=-3.402823e+38. RES=0.000000e+00. EXP_TYPE=MAX. RES_TYPE=ZERO.
# 45150::VALUE/TYPE MISMATCH: OP1=1.168511e-38 DENORM. OP2=3.402823e+38 MAX. OP_CODE=SUB. EXP=-3.402823e+38. RES=0.000000e+00. EXP_TYPE=MAX. RES_TYPE=ZERO.
# 45300::VALUE/TYPE MISMATCH: OP1=6.120594e-39 DENORM. OP2=-3.402823e+38 MAX. OP_CODE=SUB. EXP=3.402823e+38. RES=0.000000e+00. EXP_TYPE=MAX. RES_TYPE=ZERO.
# 45450::VALUE/TYPE MISMATCH: OP1=-1.141124e-38 DENORM. OP2=3.402823e+38 MAX. OP_CODE=SUB. EXP=-3.402823e+38. RES=0.000000e+00. EXP_TYPE=MAX. RES_TYPE=ZERO.
# 45600::VALUE/TYPE MISMATCH: OP1=-6.047085e-39 DENORM. OP2=-3.402823e+38 MAX. OP_CODE=SUB. EXP=3.402823e+38. RES=0.000000e+00. EXP_TYPE=MAX. RES_TYPE=ZERO.
# 45900::VALUE/TYPE MISMATCH: OP1=5.227477e-39 DENORM. OP2=-1.175494e-38 NORMMIN. OP_CODE=ADD. EXP=-6.527467e-39. RES=1.698242e-38. EXP_TYPE=DENORM. RES_TYPE=REG.
# 45900::ERROR CODE MISMATCH: EXP_ERR=UNDERFLOW. RES_ERR=NONE.
# 46050::VALUE/TYPE MISMATCH: OP1=-8.267930e-39 DENORM. OP2=1.175494e-38 NORMMIN. OP_CODE=ADD. EXP=3.487014e-39. RES=2.002287e-38. EXP_TYPE=DENORM. RES_TYPE=REG.
# 46050::ERROR CODE MISMATCH: EXP_ERR=UNDERFLOW. RES_ERR=NONE.
# 46200::VALUE/TYPE MISMATCH: OP1=-8.359865e-39 DENORM. OP2=-1.175494e-38 NORMMIN. OP_CODE=ADD. EXP=-2.011481e-38. RES=2.011481e-38. EXP_TYPE=REG. RES_TYPE=REG.
# 46350::VALUE/TYPE MISMATCH: OP1=8.070512e-39 DENORM. OP2=1.175494e-38 NORMMIN. OP_CODE=SUB. EXP=-3.684431e-39. RES=1.982546e-38. EXP_TYPE=DENORM. RES_TYPE=REG.
# 46350::ERROR CODE MISMATCH: EXP_ERR=UNDERFLOW. RES_ERR=NONE.
# 46650::VALUE/TYPE MISMATCH: OP1=-1.738761e-39 DENORM. OP2=1.175494e-38 NORMMIN. OP_CODE=SUB. EXP=-1.349370e-38. RES=1.349370e-38. EXP_TYPE=REG. RES_TYPE=REG.
# 46800::VALUE/TYPE MISMATCH: OP1=-8.877826e-39 DENORM. OP2=-1.175494e-38 NORMMIN. OP_CODE=SUB. EXP=2.877118e-39. RES=2.063277e-38. EXP_TYPE=DENORM. RES_TYPE=REG.
# 46800::ERROR CODE MISMATCH: EXP_ERR=UNDERFLOW. RES_ERR=NONE.
# 46950::VALUE/TYPE MISMATCH: OP1=2.886033e-39 DENORM. OP2=1.401298e-45 DENORMMIN. OP_CODE=ADD. EXP=2.886034e-39. RES=0.000000e+00. EXP_TYPE=DENORM. RES_TYPE=ZERO.
# 46950::ERROR CODE MISMATCH: EXP_ERR=UNDERFLOW. RES_ERR=NONE.
# 47100::VALUE/TYPE MISMATCH: OP1=4.853034e-39 DENORM. OP2=-1.401298e-45 DENORMMIN. OP_CODE=ADD. EXP=4.853033e-39. RES=0.000000e+00. EXP_TYPE=DENORM. RES_TYPE=ZERO.
# 47100::ERROR CODE MISMATCH: EXP_ERR=UNDERFLOW. RES_ERR=NONE.
# 47250::VALUE/TYPE MISMATCH: OP1=-4.562136e-39 DENORM. OP2=1.401298e-45 DENORMMIN. OP_CODE=ADD. EXP=-4.562135e-39. RES=-0.000000e+00. EXP_TYPE=DENORM. RES_TYPE=ZERO.
# 47250::ERROR CODE MISMATCH: EXP_ERR=UNDERFLOW. RES_ERR=NONE.
# 47400::VALUE/TYPE MISMATCH: OP1=-2.024802e-39 DENORM. OP2=-1.401298e-45 DENORMMIN. OP_CODE=ADD. EXP=-2.024803e-39. RES=-0.000000e+00. EXP_TYPE=DENORM. RES_TYPE=ZERO.
# 47400::ERROR CODE MISMATCH: EXP_ERR=UNDERFLOW. RES_ERR=NONE.
