src/design/chuck_test_code/transcript
# vsim -c top 
# Start time: 18:12:46 on May 23,2021
# ** Note: (vsim-3813) Design is being optimized due to module recompilation...
# ** Warning: verification/align_significands_tb.sv(1): (vopt-2605) empty port name in port list.
# //  Questa Sim-64
# //  Version 2019.2_1 linux_x86_64 May 13 2019
# //
# //  Copyright 1991-2019 Mentor Graphics Corporation
# //  All Rights Reserved.
# //
# //  QuestaSim and its associated documentation contain trade
# //  secrets and commercial or financial information that are the property of
# //  Mentor Graphics Corporation and are privileged, confidential,
# //  and exempt from disclosure under the Freedom of Information Act,
# //  5 U.S.C. Section 552. Furthermore, this information
# //  is prohibited from disclosure under the Trade Secrets Act,
# //  18 U.S.C. Section 1905.
# //
# Loading sv_std.std
# Loading work.addpkg(fast)
# Loading work.align_significands_sv_unit(fast)
# Loading work.top(fast)
# Sig = 011010110101010001110000 000, shift =   0, sig_aligned = 011010110101010001110000 000
# Sig = 011010110101010001110000 000, shift =   1, sig_aligned = 001101011010101000111000 000
# Sig = 011010110101010001110000 000, shift =   2, sig_aligned = 000110101101010100011100 000
# Sig = 011010110101010001110000 000, shift =   3, sig_aligned = 000011010110101010001110 000
# Sig = 011010110101010001110000 000, shift =   4, sig_aligned = 000001101011010101000111 000
# Sig = 011010110101010001110000 000, shift =   5, sig_aligned = 000000110101101010100011 100
# Sig = 011010110101010001110000 000, shift =   6, sig_aligned = 000000011010110101010001 110
# Sig = 011010110101010001110000 000, shift =   7, sig_aligned = 000000001101011010101000 111
# Sig = 011010110101010001110000 000, shift =   8, sig_aligned = 000000000110101101010100 011
# Sig = 011010110101010001110000 000, shift =   9, sig_aligned = 000000000011010110101010 001
# Sig = 011010110101010001110000 000, shift =  10, sig_aligned = 000000000001101011010101 001
# Sig = 011010110101010001110000 000, shift =  11, sig_aligned = 000000000000110101101010 101
# Sig = 011010110101010001110000 000, shift =  12, sig_aligned = 000000000000011010110101 011
# Sig = 011010110101010001110000 000, shift =  13, sig_aligned = 000000000000001101011010 101
# Sig = 011010110101010001110000 000, shift =  14, sig_aligned = 000000000000000110101101 011
# 
# Sig = 111011101010000110000000 000, shift =   0, sig_aligned = 111011101010000110000000 000
# Sig = 111011101010000110000000 000, shift =   1, sig_aligned = 011101110101000011000000 000
# Sig = 111011101010000110000000 000, shift =   2, sig_aligned = 001110111010100001100000 000
# Sig = 111011101010000110000000 000, shift =   3, sig_aligned = 000111011101010000110000 000
# Sig = 111011101010000110000000 000, shift =   4, sig_aligned = 000011101110101000011000 000
# Sig = 111011101010000110000000 000, shift =   5, sig_aligned = 000001110111010100001100 000
# Sig = 111011101010000110000000 000, shift =   6, sig_aligned = 000000111011101010000110 000
# Sig = 111011101010000110000000 000, shift =   7, sig_aligned = 000000011101110101000011 000
# Sig = 111011101010000110000000 000, shift =   8, sig_aligned = 000000001110111010100001 100
# Sig = 111011101010000110000000 000, shift =   9, sig_aligned = 000000000111011101010000 110
# Sig = 111011101010000110000000 000, shift =  10, sig_aligned = 000000000011101110101000 011
# Sig = 111011101010000110000000 000, shift =  11, sig_aligned = 000000000001110111010100 001
# Sig = 111011101010000110000000 000, shift =  12, sig_aligned = 000000000000111011101010 001
# Sig = 111011101010000110000000 000, shift =  13, sig_aligned = 000000000000011101110101 001
# Sig = 111011101010000110000000 000, shift =  14, sig_aligned = 000000000000001110111010 101
# 
# End time: 18:15:46 on May 23,2021, Elapsed time: 0:03:00
# Errors: 0, Warnings: 1
