src/design/chuck_test_code/transcript
# vsim -c top 
# Start time: 20:53:36 on May 23,2021
# ** Note: (vsim-3813) Design is being optimized due to module recompilation...
# ** Warning: verification/rounding_tb.sv(2): (vopt-2605) empty port name in port list.
# //  Questa Sim-64
# //  Version 2019.2_1 linux_x86_64 May 13 2019
# //
# //  Copyright 1991-2019 Mentor Graphics Corporation
# //  All Rights Reserved.
# //
# //  QuestaSim and its associated documentation contain trade
# //  secrets and commercial or financial information that are the property of
# //  Mentor Graphics Corporation and are privileged, confidential,
# //  and exempt from disclosure under the Freedom of Information Act,
# //  5 U.S.C. Section 552. Furthermore, this information
# //  is prohibited from disclosure under the Trade Secrets Act,
# //  18 U.S.C. Section 1905.
# //
# Loading sv_std.std
# Loading work.top(fast)
# IN: sig_n: 011010110101010001110111 000. co: 0. OUT: sig_r: 011010110101010001110111 000.
# IN: sig_n: 011010110101010001110111 001. co: 0. OUT: sig_r: 011010110101010001110111 000.
# IN: sig_n: 011010110101010001110111 010. co: 0. OUT: sig_r: 011010110101010001110111 000.
# IN: sig_n: 011010110101010001110111 011. co: 0. OUT: sig_r: 011010110101010001110111 000.
# IN: sig_n: 011010110101010001110111 100. co: 0. OUT: sig_r: 011010110101010001111000 000.
# IN: sig_n: 011010110101010001110111 101. co: 0. OUT: sig_r: 011010110101010001111000 000.
# IN: sig_n: 011010110101010001110111 110. co: 0. OUT: sig_r: 011010110101010001111000 000.
# IN: sig_n: 011010110101010001110111 111. co: 0. OUT: sig_r: 011010110101010001111000 000.
# IN: sig_n: 111011101010000110000100 000. co: 0. OUT: sig_r: 111011101010000110000100 000.
# IN: sig_n: 111011101010000110000100 001. co: 0. OUT: sig_r: 111011101010000110000100 000.
# IN: sig_n: 111011101010000110000100 010. co: 0. OUT: sig_r: 111011101010000110000100 000.
# IN: sig_n: 111011101010000110000100 011. co: 0. OUT: sig_r: 111011101010000110000100 000.
# IN: sig_n: 111011101010000110000100 100. co: 0. OUT: sig_r: 111011101010000110000100 000.
# IN: sig_n: 111011101010000110000100 101. co: 0. OUT: sig_r: 111011101010000110000101 000.
# IN: sig_n: 111011101010000110000100 110. co: 0. OUT: sig_r: 111011101010000110000101 000.
# IN: sig_n: 111011101010000110000100 111. co: 0. OUT: sig_r: 111011101010000110000101 000.
# IN: sig_n: 101000011011011100101100 000. co: 0. OUT: sig_r: 101000011011011100101100 000.
# IN: sig_n: 101000011011011100101100 001. co: 0. OUT: sig_r: 101000011011011100101100 000.
# IN: sig_n: 101000011011011100101100 010. co: 0. OUT: sig_r: 101000011011011100101100 000.
# IN: sig_n: 101000011011011100101100 011. co: 0. OUT: sig_r: 101000011011011100101100 000.
# IN: sig_n: 101000011011011100101100 100. co: 0. OUT: sig_r: 101000011011011100101100 000.
# IN: sig_n: 101000011011011100101100 101. co: 0. OUT: sig_r: 101000011011011100101101 000.
# IN: sig_n: 101000011011011100101100 110. co: 0. OUT: sig_r: 101000011011011100101101 000.
# IN: sig_n: 101000011011011100101100 111. co: 0. OUT: sig_r: 101000011011011100101101 000.
# IN: sig_n: 100101110011110001110110 000. co: 0. OUT: sig_r: 100101110011110001110110 000.
# IN: sig_n: 100101110011110001110110 001. co: 0. OUT: sig_r: 100101110011110001110110 000.
# IN: sig_n: 100101110011110001110110 010. co: 0. OUT: sig_r: 100101110011110001110110 000.
# IN: sig_n: 100101110011110001110110 011. co: 0. OUT: sig_r: 100101110011110001110110 000.
# IN: sig_n: 100101110011110001110110 100. co: 0. OUT: sig_r: 100101110011110001110110 000.
# IN: sig_n: 100101110011110001110110 101. co: 0. OUT: sig_r: 100101110011110001110111 000.
# IN: sig_n: 100101110011110001110110 110. co: 0. OUT: sig_r: 100101110011110001110111 000.
# IN: sig_n: 100101110011110001110110 111. co: 0. OUT: sig_r: 100101110011110001110111 000.
# IN: sig_n: 001000011100000100011000 000. co: 0. OUT: sig_r: 001000011100000100011000 000.
# IN: sig_n: 001000011100000100011000 001. co: 0. OUT: sig_r: 001000011100000100011000 000.
# IN: sig_n: 001000011100000100011000 010. co: 0. OUT: sig_r: 001000011100000100011000 000.
# IN: sig_n: 001000011100000100011000 011. co: 0. OUT: sig_r: 001000011100000100011000 000.
# IN: sig_n: 001000011100000100011000 100. co: 0. OUT: sig_r: 001000011100000100011000 000.
# IN: sig_n: 001000011100000100011000 101. co: 0. OUT: sig_r: 001000011100000100011001 000.
# IN: sig_n: 001000011100000100011000 110. co: 0. OUT: sig_r: 001000011100000100011001 000.
# IN: sig_n: 001000011100000100011000 111. co: 0. OUT: sig_r: 001000011100000100011001 000.
# IN: sig_n: 011100101010110111001000 000. co: 0. OUT: sig_r: 011100101010110111001000 000.
# IN: sig_n: 011100101010110111001000 001. co: 0. OUT: sig_r: 011100101010110111001000 000.
# IN: sig_n: 011100101010110111001000 010. co: 0. OUT: sig_r: 011100101010110111001000 000.
# IN: sig_n: 011100101010110111001000 011. co: 0. OUT: sig_r: 011100101010110111001000 000.
# IN: sig_n: 011100101010110111001000 100. co: 0. OUT: sig_r: 011100101010110111001000 000.
# IN: sig_n: 011100101010110111001000 101. co: 0. OUT: sig_r: 011100101010110111001001 000.
# IN: sig_n: 011100101010110111001000 110. co: 0. OUT: sig_r: 011100101010110111001001 000.
# IN: sig_n: 011100101010110111001000 111. co: 0. OUT: sig_r: 011100101010110111001001 000.
# IN: sig_n: 011110100010000111101110 000. co: 0. OUT: sig_r: 011110100010000111101110 000.
# IN: sig_n: 011110100010000111101110 001. co: 0. OUT: sig_r: 011110100010000111101110 000.
# IN: sig_n: 011110100010000111101110 010. co: 0. OUT: sig_r: 011110100010000111101110 000.
# IN: sig_n: 011110100010000111101110 011. co: 0. OUT: sig_r: 011110100010000111101110 000.
# IN: sig_n: 011110100010000111101110 100. co: 0. OUT: sig_r: 011110100010000111101110 000.
# IN: sig_n: 011110100010000111101110 101. co: 0. OUT: sig_r: 011110100010000111101111 000.
# IN: sig_n: 011110100010000111101110 110. co: 0. OUT: sig_r: 011110100010000111101111 000.
# IN: sig_n: 011110100010000111101110 111. co: 0. OUT: sig_r: 011110100010000111101111 000.
# IN: sig_n: 110100110111111001100101 000. co: 0. OUT: sig_r: 110100110111111001100101 000.
# IN: sig_n: 110100110111111001100101 001. co: 0. OUT: sig_r: 110100110111111001100101 000.
# IN: sig_n: 110100110111111001100101 010. co: 0. OUT: sig_r: 110100110111111001100101 000.
# IN: sig_n: 110100110111111001100101 011. co: 0. OUT: sig_r: 110100110111111001100101 000.
# IN: sig_n: 110100110111111001100101 100. co: 0. OUT: sig_r: 110100110111111001100110 000.
# IN: sig_n: 110100110111111001100101 101. co: 0. OUT: sig_r: 110100110111111001100110 000.
# IN: sig_n: 110100110111111001100101 110. co: 0. OUT: sig_r: 110100110111111001100110 000.
# IN: sig_n: 110100110111111001100101 111. co: 0. OUT: sig_r: 110100110111111001100110 000.
# IN: sig_n: 010001101110100010001100 000. co: 0. OUT: sig_r: 010001101110100010001100 000.
# IN: sig_n: 010001101110100010001100 001. co: 0. OUT: sig_r: 010001101110100010001100 000.
# IN: sig_n: 010001101110100010001100 010. co: 0. OUT: sig_r: 010001101110100010001100 000.
# IN: sig_n: 010001101110100010001100 011. co: 0. OUT: sig_r: 010001101110100010001100 000.
# IN: sig_n: 010001101110100010001100 100. co: 0. OUT: sig_r: 010001101110100010001100 000.
# IN: sig_n: 010001101110100010001100 101. co: 0. OUT: sig_r: 010001101110100010001101 000.
# IN: sig_n: 010001101110100010001100 110. co: 0. OUT: sig_r: 010001101110100010001101 000.
# IN: sig_n: 010001101110100010001100 111. co: 0. OUT: sig_r: 010001101110100010001101 000.
# IN: sig_n: 011100001100101010100111 000. co: 0. OUT: sig_r: 011100001100101010100111 000.
# IN: sig_n: 011100001100101010100111 001. co: 0. OUT: sig_r: 011100001100101010100111 000.
# IN: sig_n: 011100001100101010100111 010. co: 0. OUT: sig_r: 011100001100101010100111 000.
# IN: sig_n: 011100001100101010100111 011. co: 0. OUT: sig_r: 011100001100101010100111 000.
# IN: sig_n: 011100001100101010100111 100. co: 0. OUT: sig_r: 011100001100101010101000 000.
# IN: sig_n: 011100001100101010100111 101. co: 0. OUT: sig_r: 011100001100101010101000 000.
# IN: sig_n: 011100001100101010100111 110. co: 0. OUT: sig_r: 011100001100101010101000 000.
# IN: sig_n: 011100001100101010100111 111. co: 0. OUT: sig_r: 011100001100101010101000 000.
# End time: 20:54:51 on May 23,2021, Elapsed time: 0:01:15
# Errors: 0, Warnings: 1
